2018.09.10 03:21:36 INFO  ce[][o.s.p.ProcessEntryPoint] Starting ce
2018.09.10 03:21:36 INFO  ce[][o.s.ce.app.CeServer] Compute Engine starting up...
2018.09.10 03:21:37 INFO  ce[][o.e.p.PluginsService] no modules loaded
2018.09.10 03:21:37 INFO  ce[][o.e.p.PluginsService] loaded plugin [org.elasticsearch.index.reindex.ReindexPlugin]
2018.09.10 03:21:37 INFO  ce[][o.e.p.PluginsService] loaded plugin [org.elasticsearch.join.ParentJoinPlugin]
2018.09.10 03:21:37 INFO  ce[][o.e.p.PluginsService] loaded plugin [org.elasticsearch.percolator.PercolatorPlugin]
2018.09.10 03:21:37 INFO  ce[][o.e.p.PluginsService] loaded plugin [org.elasticsearch.transport.Netty4Plugin]
2018.09.10 03:21:38 INFO  ce[][o.s.s.e.EsClientProvider] Connected to local Elasticsearch: [127.0.0.1:9001]
2018.09.10 03:21:38 INFO  ce[][o.sonar.db.Database] Create JDBC data source for jdbc:h2:tcp://127.0.0.1:9092/sonar
2018.09.10 03:21:39 WARN  ce[][o.s.d.DatabaseChecker] H2 database should be used for evaluation purpose only
2018.09.10 03:21:39 INFO  ce[][o.s.s.p.ServerFileSystemImpl] SonarQube home: C:\Users\carli\eclipse-workspace\refactor2\sonarqube-6.7.1
2018.09.10 03:21:39 INFO  ce[][o.s.c.c.CePluginRepository] Load plugins
2018.09.10 03:21:47 INFO  ce[][o.s.c.q.PurgeCeActivities] Delete the Compute Engine tasks created before Wed Mar 14 03:21:47 CET 2018
2018.09.10 03:21:47 INFO  ce[][o.s.ce.app.CeServer] Compute Engine is operational
2018.09.10 05:16:29 INFO  ce[AWXBev2sEgkHAQVqoK2L][o.s.c.t.CeWorkerImpl] Execute task | project=refactor2 | type=REPORT | id=AWXBev2sEgkHAQVqoK2L | submitter=admin
2018.09.10 05:16:38 INFO  ce[AWXBev2sEgkHAQVqoK2L][o.s.c.t.CeWorkerImpl] Executed task | project=refactor2 | type=REPORT | id=AWXBev2sEgkHAQVqoK2L | submitter=admin | time=9069ms
2018.09.10 05:17:14 INFO  ce[AWXBe68xEgkHAQVqoK2M][o.s.c.t.CeWorkerImpl] Execute task | project=refactor2 | type=REPORT | id=AWXBe68xEgkHAQVqoK2M | submitter=admin
2018.09.10 05:17:17 INFO  ce[AWXBe68xEgkHAQVqoK2M][o.s.c.t.CeWorkerImpl] Executed task | project=refactor2 | type=REPORT | id=AWXBe68xEgkHAQVqoK2M | submitter=admin | time=3490ms
2018.09.10 05:19:38 INFO  ce[AWXBfeFdEgkHAQVqoK2N][o.s.c.t.CeWorkerImpl] Execute task | project=refactor2 | type=REPORT | id=AWXBfeFdEgkHAQVqoK2N | submitter=admin
2018.09.10 05:19:41 INFO  ce[AWXBfeFdEgkHAQVqoK2N][o.s.c.t.CeWorkerImpl] Executed task | project=refactor2 | type=REPORT | id=AWXBfeFdEgkHAQVqoK2N | submitter=admin | time=3122ms
2018.09.10 05:20:09 INFO  ce[AWXBfl19EgkHAQVqoK2O][o.s.c.t.CeWorkerImpl] Execute task | project=refactor2 | type=REPORT | id=AWXBfl19EgkHAQVqoK2O | submitter=admin
2018.09.10 05:20:12 INFO  ce[AWXBfl19EgkHAQVqoK2O][o.s.c.t.CeWorkerImpl] Executed task | project=refactor2 | type=REPORT | id=AWXBfl19EgkHAQVqoK2O | submitter=admin | time=2888ms
2018.09.10 06:07:10 INFO  ce[AWXBqWVREgkHAQVqoK2P][o.s.c.t.CeWorkerImpl] Execute task | project=refactor2 | type=REPORT | id=AWXBqWVREgkHAQVqoK2P | submitter=admin
2018.09.10 06:07:13 INFO  ce[AWXBqWVREgkHAQVqoK2P][o.s.c.t.CeWorkerImpl] Executed task | project=refactor2 | type=REPORT | id=AWXBqWVREgkHAQVqoK2P | submitter=admin | time=3153ms
2018.09.10 06:09:09 INFO  ce[AWXBqzZEEgkHAQVqoK2Q][o.s.c.t.CeWorkerImpl] Execute task | project=refactor2 | type=REPORT | id=AWXBqzZEEgkHAQVqoK2Q | submitter=admin
2018.09.10 06:09:12 INFO  ce[AWXBqzZEEgkHAQVqoK2Q][o.s.c.t.CeWorkerImpl] Executed task | project=refactor2 | type=REPORT | id=AWXBqzZEEgkHAQVqoK2Q | submitter=admin | time=2967ms
2018.09.10 16:19:36 INFO  ce[][o.s.p.ProcessEntryPoint] Starting ce
2018.09.10 16:19:36 INFO  ce[][o.s.ce.app.CeServer] Compute Engine starting up...
2018.09.10 16:19:37 INFO  ce[][o.e.p.PluginsService] no modules loaded
2018.09.10 16:19:37 INFO  ce[][o.e.p.PluginsService] loaded plugin [org.elasticsearch.index.reindex.ReindexPlugin]
2018.09.10 16:19:37 INFO  ce[][o.e.p.PluginsService] loaded plugin [org.elasticsearch.join.ParentJoinPlugin]
2018.09.10 16:19:37 INFO  ce[][o.e.p.PluginsService] loaded plugin [org.elasticsearch.percolator.PercolatorPlugin]
2018.09.10 16:19:37 INFO  ce[][o.e.p.PluginsService] loaded plugin [org.elasticsearch.transport.Netty4Plugin]
2018.09.10 16:19:38 INFO  ce[][o.s.s.e.EsClientProvider] Connected to local Elasticsearch: [127.0.0.1:9001]
2018.09.10 16:19:38 INFO  ce[][o.sonar.db.Database] Create JDBC data source for jdbc:h2:tcp://127.0.0.1:9092/sonar
2018.09.10 16:19:39 WARN  ce[][o.s.d.DatabaseChecker] H2 database should be used for evaluation purpose only
2018.09.10 16:19:39 INFO  ce[][o.s.s.p.ServerFileSystemImpl] SonarQube home: C:\Users\carli\eclipse-workspace\refactor2\sonarqube-6.7.1
2018.09.10 16:19:40 INFO  ce[][o.s.c.c.CePluginRepository] Load plugins
2018.09.10 16:19:59 INFO  ce[][o.s.c.q.PurgeCeActivities] Delete the Compute Engine tasks created before Wed Mar 14 16:19:59 CET 2018
2018.09.10 16:20:01 INFO  ce[][o.s.ce.app.CeServer] Compute Engine is operational
